year,month,day,temp_min,temp_max,rain_in
2000,June,29,4.0,24.0,0.01
2000,June,30,5.0,26.0,
2000,July,01,7.0,25.0,
2000,July,02,6.0,23.0,0.01
2000,July,03,8.5,23.5,0.03
2000,July,04,5.5,20.5,
2000,July,05,2.0,24.5,
2000,July,06,4.0,26.0,
2000,July,07,7.5,25.0,
2000,July,08,9.5,25.5,
2000,July,09,8.5,22.0,0.40
2000,July,10,7.0,25.0,0.26
2000,July,11,7.0,26.0,
2000,July,12,6.5,25.0,
2000,July,13,7.0,26.0,0.03
2000,July,14,7.0,28.0,0.17
2000,July,15,9.5,26.0,0.52
2000,July,16,8.0,25.0,0.61
2000,July,17,8.5,20.0,0.30
2000,July,18,6.0,24.5,
2000,July,19,4.0,25.5,
2000,July,20,3.5,26.0,
2000,July,21,3.5,27.5,
2000,July,22,4.0,28.0,
2000,July,23,4.0,27.0,
2000,July,24,5.0,28.5,
2000,July,25,6.5,28.0,0.02
2001,June,29,6.5,25.5,0.04
2001,June,30,6.0,29.0,0.03
2001,July,01,6.5,29.0,0.28
2001,July,02,7.5,27.0,
2001,July,03,5.5,29.0,
2001,July,04,6.0,27.5,0.01
2001,July,05,7.0,29.0,
2001,July,06,7.0,28.5,0.03
2001,July,07,7.0,26.0,
2001,July,08,10.0,27.5,0.02
2001,July,09,8.5,26.0,0.04
2001,July,10,7.5,27.0,0.48
2001,July,11,7.0,23.0,
2001,July,12,8.0,23.5,0.20
2001,July,13,6.5,22.0,0.26
2001,July,14,6.5,16.0,0.34
2001,July,15,6.0,17.0,0.54
2001,July,16,4.0,20.0,0.04
2001,July,17,3.0,19.0,
2001,July,18,5.5,23.5,
2001,July,19,4.5,27.0,
2001,July,20,5.0,22.0,
2001,July,21,6.5,24.0,
2001,July,22,6.5,25.0,
2001,July,23,5.5,25.5,
2001,July,24,9.0,21.0,0.09
2001,July,25,4.5,26.0,0.02
2002,June,29,3.0,26.0,
2002,June,30,3.5,26.5,
2002,July,01,4.0,29.5,
2002,July,02,5.5,30.5,0.01
2002,July,03,6.0,26.5,
2002,July,04,5.5,24.5,0.46
2002,July,05,5.0,24.5,0.24
2002,July,06,4.5,25.5,
2002,July,07,6.0,26.0,0.09
2002,July,08,6.5,28.5,
2002,July,09,6.0,29.0,
2002,July,10,6.0,26.0,
2002,July,11,4.5,27.0,
2002,July,12,4.5,29.0,
2002,July,13,4.0,29.5,
2002,July,14,5.5,25.0,
2002,July,15,5.0,28.0,
2002,July,16,4.0,27.0,
2002,July,17,5.0,29.0,0.01
2002,July,18,5.0,29.0,
2002,July,19,6.0,27.5,
2002,July,20,7.5,27.0,
2002,July,21,6.0,26.0,
2002,July,22,4.5,24.5,
2002,July,23,7.0,26.5,0.01
2002,July,24,4.5,28.0,0.01
2002,July,25,8.0,24.0,
2003,June,29,3.5,24.0,
2003,June,30,3.0,27.0,
2003,July,01,5.0,25.0,
2003,July,02,3.5,25.5,
2003,July,03,3.5,26.5,
2003,July,04,3.5,26.5,
2003,July,05,3.5,26.5,
2003,July,06,4.0,26.0,
2003,July,07,4.0,26.0,
2003,July,08,3.5,26.5,
2003,July,09,4.0,27.0,
2003,July,10,2.0,28.5,
2003,July,11,3.0,28.5,
2003,July,12,5.0,28.5,
2003,July,13,4.5,28.0,
2003,July,14,5.5,29.5,
2003,July,15,6.5,28.5,
2003,July,16,6.0,29.5,
2003,July,17,7.0,29.0,0.04
2003,July,18,7.5,29.5,
2003,July,19,6.5,30.0,
2003,July,20,7.0,28.0,0.07
2003,July,21,7.0,27.5,
2003,July,22,6.5,28.5,
2003,July,23,7.5,26.0,0.10
2003,July,24,5.5,28.0,
2003,July,25,8.5,26.0,0.03
2004,June,29,5.0,20.0,0.03
2004,June,30,6.0,14.0,0.76
2004,July,01,2.0,21.5,0.10
2004,July,02,1.0,23.0,
2004,July,03,1.5,22.0,
2004,July,04,1.5,23.5,
2004,July,05,6.0,22.0,0.15
2004,July,06,3.0,23.0,0.02
2004,July,07,3.5,24.5,
2004,July,08,3.0,24.5,
2004,July,09,3.0,26.0,
2004,July,10,10.5,24.0,
2004,July,11,5.5,26.0,
2004,July,12,5.0,29.5,
2004,July,13,6.5,28.0,
2004,July,14,8.0,27.0,0.06
2004,July,15,7.0,25.0,0.03
2004,July,16,8.0,26.0,0.01
2004,July,17,8.0,21.5,0.20
2004,July,18,5.5,26.0,0.29
2004,July,19,7.5,24.5,0.20
2004,July,20,6.5,23.5,0.01
2004,July,21,5.5,25.0,0.01
2004,July,22,5.0,24.5,
2004,July,23,6.0,19.0,0.44
2004,July,24,3.5,19.5,0.03
2004,July,25,4.0,21.5,
2005,June,29,2.0,19.0,0.10
2005,June,30,3.0,21.5,
2005,July,01,3.0,24.0,
2005,July,02,3.0,24.0,
2005,July,03,3.5,23.5,0.02
2005,July,04,2.0,23.0,
2005,July,05,3.0,25.0,
2005,July,06,3.5,24.5,
2005,July,07,3.0,25.5,
2005,July,08,3.0,26.5,
2005,July,09,4.5,26.5,
2005,July,10,4.0,24.0,
2005,July,11,3.0,27.0,
2005,July,12,5.5,29.0,
2005,July,13,6.0,29.0,
2005,July,14,5.0,29.5,0.09
2005,July,15,5.0,25.5,0.08
2005,July,16,5.5,27.5,
2005,July,17,6.0,27.0,
2005,July,18,5.0,27.0,
2005,July,19,4.0,28.0,
2005,July,20,5.5,29.0,
2005,July,21,6.5,29.5,0.03
2005,July,22,5.5,26.5,
2005,July,23,5.5,27.0,0.27
2005,July,24,8.0,24.5,0.25
2005,July,25,10.0,18.0,0.03
2006,June,29,3.0,25.0,
2006,June,30,4.0,24.5,0.04
2006,July,01,4.0,25.0,0.07
2006,July,02,5.0,24.0,0.60
2006,July,03,8.5,21.5,0.18
2006,July,04,6.0,21.5,0.08
2006,July,05,6.5,23.0,0.15
2006,July,06,10.5,18.5,0.21
2006,July,07,6.5,23.0,0.48
2006,July,08,9.5,15.0,0.55
2006,July,09,10.0,15.5,0.24
2006,July,10,4.5,21.0,0.09
2006,July,11,3.5,22.0,0.02
2006,July,12,4.0,22.0,0.21
2006,July,13,4.5,23.5,
2006,July,14,4.0,24.0,
2006,July,15,5.5,26.5,0.12
2006,July,16,6.0,26.5,
2006,July,17,7.0,28.5,0.22
2006,July,18,7.0,25.5,0.13
2006,July,19,7.0,26.0,0.07
2006,July,20,8.5,24.0,0.42
2006,July,21,7.5,24.0,0.29
2006,July,22,8.5,25.0,
2006,July,23,6.5,25.5,
2006,July,24,9.0,26.5,0.03
2006,July,25,10.5,23.0,0.05
2007,June,29,4.5,27.0,
2007,June,30,5.0,27.0,
2007,July,01,4.5,28.5,
2007,July,02,4.5,28.5,
2007,July,03,3.5,29.5,
2007,July,04,5.0,27.0,
2007,July,05,5.5,24.0,0.08
2007,July,06,6.0,25.5,0.00
2007,July,07,4.0,28.0,0.00
2007,July,08,4.5,23.0,0.13
2007,July,09,4.0,25.0,0.00
2007,July,10,5.0,27.5,0.00
2007,July,11,5.5,26.0,0.00
2007,July,12,9.0,19.5,0.20
2007,July,13,6.0,23.5,0.00
2007,July,14,6.0,26.5,0.00
2007,July,15,5.5,28.0,0.00
2007,July,16,6.0,28.0,0.00
2007,July,17,5.5,26.0,0.00
2007,July,18,6.0,28.0,0.00
2007,July,19,6.5,27.0,0.71
2007,July,20,9.0,19.5,0.02
2007,July,21,10.0,22.0,0.35
2007,July,22,6.5,25.0,0.40
2007,July,23,8.0,25.5,0.00
2007,July,24,9.0,24.0,0.16
2007,July,25,8.0,26.5,0.00
2008,June,29,4.0,25.0,0.00
2008,June,30,3.5,26.5,0.00
2008,July,01,3.5,25.5,0.17
2008,July,02,3.5,26.0,0.07
2008,July,03,3.0,25.5,0.00
2008,July,04,4.0,26.5,0.00
2008,July,05,5.0,26.5,0.04
2008,July,06,4.0,24.5,0.00
2008,July,07,7.5,23.0,0.15
2008,July,08,3.0,25.0,0.00
2008,July,09,3.0,24.0,0.00
2008,July,10,3.5,26.0,0.00
2008,July,11,3.0,26.5,0.00
2008,July,12,4.5,25.5,0.00
2008,July,13,2.0,26.0,0.00
2008,July,14,4.0,25.0,0.00
2008,July,15,3.5,25.0,0.00
2008,July,16,3.5,25.5,0.00
2008,July,17,4.5,25.0,0.04
2008,July,18,4.0,23.5,0.17
2008,July,19,4.0,26.0,0.00
2008,July,20,5.5,25.0,0.00
2008,July,21,6.0,27.0,0.15
2008,July,22,8.0,25.0,0.00
2008,July,23,8.5,26.5,0.14
2008,July,24,5.0,25.0,0.25
2008,July,25,5.0,25.0,0.00
2009,June,29,3.5,23.5,0.00
2009,June,30,3.5,25.0,0.00
2009,July,01,4.0,25.5,0.00
2009,July,02,5.0,22.0,0.07
2009,July,03,9.0,20.0,0.60
2009,July,04,6.0,23.0,0.01
2009,July,05,5.5,21.5,0.07
2009,July,06,4.0,22.0,0.00
2009,July,07,3.5,24.0,0.00
2009,July,08,2.5,24.0,0.00
2009,July,09,3.0,23.5,0.00
2009,July,10,4.0,22.5,0.00
2009,July,11,5.0,24.0,0.13
2009,July,12,8.0,24.5,0.06
2009,July,13,5.0,20.0,0.14
2009,July,14,5.0,24.0,0.00
2009,July,15,4.5,24.0,0.00
2009,July,16,4.0,25.0,0.00
2009,July,17,4.5,26.0,0.00
2009,July,18,4.0,26.5,0.00
2009,July,19,4.5,26.5,0.00
2009,July,20,6.0,25.5,0.02
2009,July,21,5.5,23.5,0.00
2009,July,22,3.0,25.0,0.00
2009,July,23,4.0,28.0,0.00
2009,July,24,4.0,22.5,0.00
2009,July,25,8.5,25.5,0.00
2010,June,29,1.5,21.5,0.02
2010,June,30,2.0,21.5,0.00
2010,July,01,3.0,21.5,0.01
2010,July,02,4.5,19.0,0.07
2010,July,03,4.0,20.0,0.11
2010,July,04,1.5,20.0,0.00
2010,July,05,1.5,19.0,0.02
2010,July,06,-0.5,21.0,0.00
2010,July,07,0.5,21.0,0.00
2010,July,08,1.5,19.0,0.23
2010,July,09,1.0,21.0,0.00
2010,July,10,5.0,18.0,0.07
2010,July,11,2.0,20.5,0.00
2010,July,12,1.0,20.5,0.17
2010,July,13,4.0,23.5,0.02
2010,July,14,5.0,24.5,0.01
2010,July,15,4.5,24.5,0.00
2010,July,16,3.0,26.5,0.00
2010,July,17,4.0,27.5,0.00
2010,July,18,7.0,24.5,0.00
2010,July,19,4.0,25.0,0.00
2010,July,20,10.0,26.0,0.02
2010,July,21,9.5,16.0,0.95
2010,July,22,5.0,20.0,0.07
2010,July,23,6.5,23.0,0.11
2010,July,24,5.0,24.0,0.00
2010,July,25,5.0,23.5,0.03
2011,June,29,3.5,22.2,0.12
2011,June,30,3.5,17.0,0.22
2011,July,01,0.0,21.0,0.00
2011,July,02,2.0,23.0,0.00
2011,July,03,2.5,24.5,0.00
2011,July,04,3.5,25.0,0.00
2011,July,05,3.5,23.0,0.02
2011,July,06,6.0,22.0,0.17
2011,July,07,4.5,22.5,0.41
2011,July,08,4.5,21.5,0.14
2011,July,09,5.0,18.5,0.35
2011,July,10,6.0,19.5,0.16
2011,July,11,7.5,19.0,0.04
2011,July,12,6.5,17.5,0.01
2011,July,13,5.5,20.5,0.43
2011,July,14,5.0,21.0,0.00
2011,July,15,2.0,22.5,0.00
2011,July,16,4.0,22.5,0.00
2011,July,17,6.0,22.5,0.00
2011,July,18,7.5,24.0,0.13
2011,July,19,6.0,20.0,0.05
2011,July,20,6.0,21.0,0.03
2011,July,21,3.5,21.5,0.00
2011,July,22,3.5,23.5,0.00
2011,July,23,2.5,23.5,0.00
2011,July,24,4.5,25.0,0.00
2011,July,25,5.0,24.5,0.09
2012,June,29,4.0,24.0,0.40
2012,June,30,2.5,25.0,0.00
2012,July,01,3.5,26.0,0.00
2012,July,02,5.0,26.5,0.00
2012,July,03,4.5,25.0,0.05
2012,July,04,4.0,23.0,0.13
2012,July,05,6.5,23.0,0.05
2012,July,06,4.5,23.0,0.12
2012,July,07,9.0,18.0,0.72
2012,July,08,5.5,19.0,0.04
2012,July,09,3.5,23.0,0.05
2012,July,10,3.5,24.0,0.00
2012,July,11,4.0,25.0,0.01
2012,July,12,3.0,25.5,0.00
2012,July,13,4.0,24.0,0.00
2012,July,14,7.5,20.5,0.07
2012,July,15,4.0,19.5,0.33
2012,July,16,5.0,20.5,0.12
2012,July,17,2.5,22.0,0.00
2012,July,18,3.0,23.0,0.00
2012,July,19,4.0,25.0,0.00
2012,July,20,6.0,26.5,0.04
2012,July,21,5.5,25.5,0.00
2012,July,22,6.5,23.0,0.13
2012,July,23,5.0,25.0,0.00
2012,July,24,4.5,23.5,0.00
2012,July,25,7.5,21.0,0.00
2013,June,29,6.0,24.0,0.02
2013,June,30,3.5,22.5,0.00
2013,July,01,2.5,23.0,0.00
2013,July,02,3.0,23.0,0.00
2013,July,03,1.5,23.0,0.00
2013,July,04,5.0,24.0,0.00
2013,July,05,9.0,22.5,0.01
2013,July,06,6.5,22.0,0.00
2013,July,07,5.0,23.5,0.11
2013,July,08,4.0,23.0,0.00
2013,July,09,4.5,26.0,0.00
2013,July,10,6.5,27.0,0.00
2013,July,11,4.5,26.0,0.00
2013,July,12,6.5,21.5,0.04
2013,July,13,5.0,22.5,0.11
2013,July,14,5.5,22.0,0.23
2013,July,15,4.5,19.5,0.16
2013,July,16,5.5,20.5,0.51
2013,July,17,5.0,22.5,0.23
2013,July,18,5.5,22.0,0.24
2013,July,19,4.0,20.0,0.00
2013,July,20,3.5,22.5,0.00
2013,July,21,4.5,24.5,0.00
2013,July,22,4.5,25.0,0.00
2013,July,23,3.0,26.5,0.00
2013,July,24,6.0,17.0,0.04
2013,July,25,8.0,21.0,0.13
2014,June,29,0.5,22.0,0.00
2014,June,30,3.5,23.5,0.00
2014,July,01,1.0,22.0,0.00
2014,July,02,0.0,22.0,0.00
2014,July,03,1.5,23.0,0.00
2014,July,04,5.0,12.5,0.00
2014,July,05,3.0,24.5,0.00
2014,July,06,2.5,25.5,0.00
2014,July,07,5.0,24.5,0.00
2014,July,08,2.0,25.0,0.08
2014,July,09,3.5,23.5,0.00
2014,July,10,3.5,23.5,0.23
2014,July,11,6.5,21.5,0.03
2014,July,12,4.5,24.0,0.33
2014,July,13,4.5,23.5,0.07
2014,July,14,4.5,23.5,0.00
2014,July,15,5.0,22.0,0.01
2014,July,16,6.0,20.0,0.00
2014,July,17,1.5,20.0,0.00
2014,July,18,1.5,20.5,0.03
2014,July,19,3.0,23.0,0.00
2014,July,20,3.5,24.0,0.08
2014,July,21,3.5,22.5,0.00
2014,July,22,2.0,27.5,0.00
2014,July,23,4.5,25.5,0.10
2014,July,24,8.0,22.0,0.03
2014,July,25,5.0,23.5,0.05
2015,June,29,5.0,24.0,0.08
2015,June,30,4.5,26.0,0.00
2015,July,01,5.5,22.5,0.02
2015,July,02,6.0,23.5,0.01
2015,July,03,6.0,20.0,0.10
2015,July,04,5.0,22.5,0.19
2015,July,05,5.5,16.0,0.01
2015,July,06,4.0,19.0,0.14
2015,July,07,5.5,15.0,0.51
2015,July,08,4.0,14.0,0.67
2015,July,09,1.0,18.0,0.76
2015,July,10,3.0,16.5,0.09
2015,July,11,1.5,17.0,0.08
2015,July,12,5.0,20.0,0.03
2015,July,13,5.5,20.0,0.03
2015,July,14,5.5,19.5,0.22
2015,July,15,1.5,18.0,0.05
2015,July,16,1.0,19.0,0.03
2015,July,17,2.5,19.5,0.03
2015,July,18,3.0,17.5,0.21
2015,July,19,5.5,16.0,0.04
2015,July,20,2.0,19.0,0.35
2015,July,21,7.0,16.0,0.37
2015,July,22,5.0,19.5,0.12
2015,July,23,3.5,21.0,0.00
2015,July,24,6.5,13.5,0.34
2015,July,25,1.5,21.0,0.14
2016,June,29,3.0,23.5,0.00
2016,June,30,3.5,19.0,0.07
2016,July,01,9.0,11.0,0.50
2016,July,02,4.0,16.5,0.08
2016,July,03,4.0,19.0,0.00
2016,July,04,1.0,23.0,0.00
2016,July,05,3.5,21.5,0.00
2016,July,06,2.5,22.0,0.00
2016,July,07,1.5,21.5,0.00
2016,July,08,1.0,23.0,0.00
2016,July,09,1.5,23.0,0.00
2016,July,10,3.5,23.0,0.00
2016,July,11,2.0,19.0,0.00
2016,July,12,-1.0,21.0,0.00
2016,July,13,0.0,22.0,0.00
2016,July,14,0.5,22.5,0.00
2016,July,15,0.5,24.0,0.00
2016,July,16,0.5,24.0,0.00
2016,July,17,1.5,24.5,0.00
2016,July,18,4.5,21.5,0.19
2016,July,19,6.0,20.5,0.29
2016,July,20,4.5,23.0,0.15
2016,July,21,4.5,21.0,0.01
2016,July,22,5.0,24.5,0.00
2016,July,23,4.0,24.5,0.00
2016,July,24,5.0,25.0,0.01
2016,July,25,3.5,24.5,0.06
2017,June,29,0.0,20.0,0.00
2017,June,30,1.5,19.0,0.00
2017,July,01,-1.5,21.5,0.00
2017,July,02,-0.5,24.0,0.04
2017,July,03,0.0,20.5,0.00
2017,July,04,1.0,24.0,0.00
2017,July,05,1.0,26.5,0.00
2017,July,06,2.0,25.0,0.03
2017,July,07,2.0,24.5,0.00
2017,July,08,2.5,24.5,0.00
2017,July,09,2.5,26.0,0.00
2017,July,10,4.5,25.0,0.01
2017,July,11,6.5,22.0,0.05
2017,July,12,6.5,19.0,0.19
2017,July,13,5.0,20.5,0.11
2017,July,14,4.5,21.0,0.08
2017,July,15,2.0,24.5,0.00
2017,July,16,3.5,22.0,0.00
2017,July,17,3.5,24.0,0.08
2017,July,18,5.0,22.0,0.23
2017,July,19,5.5,24.0,0.21
2017,July,20,5.5,24.5,0.00
2017,July,21,5.0,23.0,0.00
2017,July,22,7.0,22.0,0.00
2017,July,23,3.0,23.5,0.15
2017,July,24,3.5,24.0,0.07
2017,July,25,9.0,17.0,0.38
2018,June,29,0.5,23.0,0.00
2018,June,30,-0.5,20.0,0.00
2018,July,01,0.0,21.0,0.00
2018,July,02,-1.0,23.5,0.00
2018,July,03,1.0,23.0,0.00
2018,July,04,1.0,25.5,0.00
2018,July,05,3.0,24.5,0.00
2018,July,06,3.0,26.5,0.00
2018,July,07,3.0,27.5,0.05
2018,July,08,4.0,26.0,0.11
2018,July,09,3.0,26.5,0.01
2018,July,10,4.5,25.0,0.13
2018,July,11,3.5,24.5,0.10
2018,July,12,5.5,19.0,0.24
2018,July,13,4.0,23.0,0.01
2018,July,14,5.0,28.0,0.00
2018,July,15,7.0,22.0,0.05
2018,July,16,4.0,23.5,0.03
2018,July,17,5.5,25.5,0.02
2018,July,18,4.0,24.5,0.00
2018,July,19,4.5,26.5,0.00
2018,July,20,5.0,26.5,0.00
2018,July,21,4.0,27.0,0.00
2018,July,22,6.5,23.0,0.00
2018,July,23,5.0,25.0,0.00
2018,July,24,6.5,25.0,0.01
2018,July,25,4.5,25.0,0.01
