year,date_sampled,site,block,doy,times_sampled,habitat_type,bowls_down,bowls_up,bowl_time,start_am,am_nettime_hrs,am_netters,start_pm,pm_nettime_hrs,pm_netters,total_time,high_temp,wind,cloud_cover,precip,notes
2012,17-Apr,Almont,Weather station,108,1,Weather Station,10:30,16:50,6:20,10:40,1,A. Slominski,15:40,1,A. Slominski,2,,,,,
2012,30-Apr,Almont,Weather station,121,2,Weather Station,9:30,16:30,7:00,9:45,1,A. Slominski,14:55,1,A. Slominski,2,,,,,
2012,1-May,Davids,A,122,1,Dry,11:20,17:20,6:00,11:30,1,A. Slominski,15:50,1,A. Slominski,2,,,,,
2012,3-May,Beaver,B,124,1,Veratrum,8:30,14:30,6:00,8:35,1,A. Slominski,12:30,1,A. Slominski,2,,,,,
2012,3-May,Gothic,B,124,1,Willow,9:50,15:45,5:55,9:52,1,A. Slominski,14:35,1,A. Slominski,2,,,,,
2012,3-May,Seans,B,124,1,Dry,11:10,17:00,5:50,11:12,1,A. Slominski,15:55,1,A. Slominski,2,,,,,
2012,5-May,Kettle Ponds,Weather station,126,1,Weather Station,9:00,15:30,6:30,9:30,1,A. Slominski,14:00,1,A. Slominski,2,,,,,
2012,10-May,Copper,D,131,1,Willow,11:30,18:30,7:00,13:00,1,A. Slominski,16:35,1,A. Slominski,2,,,,,
2012,10-May,Hill,D,131,1,Dry,10:00,16:30,6:30,10:05,1,A. Slominski,14:05,1,A. Slominski,2,,,,,
2012,10-May,Little,D,131,1,Veratrum,11:20,18:00,6:40,11:40,1,A. Slominski,15:10,1,A. Slominski,2,,,,,
2012,14-May,Davids,A,135,2,Dry,8:45,15:25,6:40,9:00,1,A. Slominski,14:00,1,A. Slominski,2,,,,,
2012,14-May,Tuttle,A,135,1,Veratrum,10:20,17:00,6:40,10:50,1,A. Slominski,15:45,1,A. Slominski,2,,,,,
2012,14-May,Willey,A,135,1,Willow,10:30,18:20,7:50,12:25,1,A. Slominski,17:05,1,A. Slominski,2,,,,,
2012,15-May,Beaver,B,136,2,Veratrum,10:10,17:10,7:00,11:45,1,A. Slominski,16:05,1,A. Slominski,2,,,,,
2012,15-May,Gothic,B,136,2,Willow,10:20,16:00,5:40,10:30,1,A. Slominski,14:55,1,A. Slominski,2,,,,,
2012,15-May,Seans,B,136,2,Dry,8:15,14:35,6:20,8:45,1,A. Slominski,13:10,1,A. Slominski,2,,,,,
2012,19-May,Almont,Weather station,140,3,Weather Station,8:30,14:30,6:00,9:00,1,A. Slominski,13:00,1,A. Slominski,2,,,,,
2012,21-May,Copper,D,142,2,Willow,11:40,16:45,5:05,11:42,0.5,R. Brennan,16:08,0.5,R. Brennan,1,,,,,
2012,21-May,Hill,D,142,2,Dry,10:02,15:30,5:28,10:10,0.5,R. Brennan,14:40,0.5,R. Brennan,1,,,,,
2012,21-May,Little,D,142,2,Veratrum,10:50,16:05,5:15,10:52,0.5,R. Brennan,15:31,0.5,R. Brennan,1,,,,,
2012,22-May,Kettle Ponds,Weather station,143,2,Weather Station,9:01,16:20,7:19,9:02,1,R. Brennan,15:12,1,R. Brennan,2,,,,,
2012,25-May,Snodgrass,Weather station,146,1,Weather Station,10:20,15:20,5:00,9:02,1,R. Brennan,14:12,1,R. Brennan,2,,,,,
2012,29-May,Davids,A,150,3,Dry,8:45,13:45,5:00,8:58,1,"R. Brennan, A. Slominski",13:05,1,"R. Brennan, A. Slominski",2,,,,,
2012,29-May,Tuttle,A,150,2,Veratrum,11:20,15:31,4:11,11:29,1,"R. Brennan, A. Slominski",14:40,1,"R. Brennan, A. Slominski",2,,,,,
2012,29-May,Willey,A,150,2,Willow,10:22,15:52,5:30,10:34,1,"R. Brennan, A. Slominski",14:04,1,"R. Brennan, A. Slominski",2,,,,,
2012,30-May,Beaver,B,151,3,Veratrum,9:05,14:20,5:15,9:06,1,"R. Brennan, A. Slominski",12:52,1,"R. Brennan, A. Slominski",2,,,,,
2012,30-May,Gothic,B,151,3,Willow,9:52,14:10,4:18,10:00,1,"R. Brennan, A. Slominski",13:27,1,"R. Brennan, A. Slominski",2,,,,,
2012,30-May,Seans,B,151,3,Dry,11:00,15:30,4:30,11:10,1,"R. Brennan, A. Slominski",14:37,1,"R. Brennan, A. Slominski",2,,,,,
2012,31-May,Almont,Weather station,152,4,Weather Station,10:00,16:23,6:23,10:02,1,R. Brennan,15:15,1,R. Brennan,2,,,,,
2012,4-Jun,Copper,D,156,3,Willow,9:45,14:52,5:07,9:47,1,"R. Brennan, A. Slominski",12:55,1,"R. Brennan, A. Slominski",2,,,,,
2012,4-Jun,Hill,D,156,3,Dry,9:10,14:48,5:38,11:00,1,"R. Brennan, A. Slominski",14:05,1,"R. Brennan, A. Slominski",2,,,,,
2012,4-Jun,Little,D,156,3,Veratrum,9:28,15:04,5:36,10:24,1,"R. Brennan, A. Slominski",13:30,1,"R. Brennan, A. Slominski",2,,,,,
2012,5-Jun,Snodgrass,Weather station,157,2,Weather Station,10:20,16:00,5:40,10:21,1,R. Brennan,14:50,1,R. Brennan,2,,,,,
2012,6-Jun,Kettle Ponds,Weather station,158,3,Weather Station,9:40,16:00,6:20,9:42,1,R. Brennan,14:45,1,R. Brennan,2,,,,,
2012,11-Jun,Davids,A,163,4,Dry,11:25,16:20,4:55,11:35,1,"R. Brennan, SME, SET",15:40,1,"R. Brennan, SME, Maddie",2,,,,,
2012,11-Jun,Tuttle,A,163,3,Veratrum,9:10,13:50,4:40,9:25,1,"R. Brennan, SME, SET",13:15,1,"R. Brennan, SME, Maddie",2,,,,,
2012,11-Jun,Willey,A,163,3,Willow,10:00,15:05,5:05,10:15,1,"R. Brennan, SME, SET",14:25,1,"R. Brennan, SME, Maddie",2,,,,,
2012,13-Jun,Beaver,B,165,4,Veratrum,9:38,15:20,5:42,9:40,1,"R. Brennan, SME",14:05,1,"R. Brennan, SME",2,,,,,
2012,13-Jun,Gothic,B,165,4,Willow,10:27,15:25,4:58,10:30,1,"R. Brennan, SME",14:40,1,"R. Brennan, SME",2,,,,,
2012,13-Jun,Seans,B,165,4,Dry,11:20,16:40,5:20,11:30,1,"R. Brennan, SME",15:57,1,"R. Brennan, SME",2,,,,,
2012,14-Jun,Mexican Cut,Weather station,166,1,Weather Station,10:45,15:05,4:20,10:50,1,"R. Brennan, L. Barbour",14:30,1,"R. Brennan, L. Barbour",2,,,,,
2012,15-Jun,Almont,Weather station,167,5,Weather Station,10:35,16:30,5:55,10:36,1,R. Brennan,15:20,1,R. Brennan,2,,,,,
2012,18-Jun,Copper,D,170,4,Willow,9:44,14:25,4:41,9:45,1,"R. Brennan, SET",13:45,1,"R. Brennan, SET",2,,,,,
2012,18-Jun,Hill,D,170,4,Dry,11:21,15:55,4:34,11:22,1,"R. Brennan, SET",15:15,1,"R. Brennan, SET",2,,,,,
2012,18-Jun,Little,D,170,4,Veratrum,10:29,15:10,4:41,10:30,1,"R. Brennan, SET",14:30,1,"R. Brennan, SET",2,,,,,
2012,20-Jun,Snodgrass,Weather station,172,3,Weather Station,10:28,16:30,6:02,10:30,1,"R. Brennan, SET",15:30,1,"R. Brennan, SET",2,,,,,
2012,21-Jun,1,Control,173,,Control,10:39,16:20,5:41,10:53,1,SET,15:26,1,"SET, Z. Gezon",2,,,,,
2012,21-Jun,Kettle Ponds,Weather station,173,4,Weather Station,9:45,15:51,6:06,9:46,1,"R. Brennan, SME",15:10,1,"R. Brennan, SME",2,,,,,
2012,25-Jun,2,Control,177,,Control,10:00,14:10,4:10,11:40,1,"SET, SME",13:30,1,"SET, SME",2,,,,,
2012,25-Jun,Almont,Weather station,177,6,Weather Station,10:15,16:20,6:05,10:16,1,R. Brennan,15:10,1,R. Brennan,2,,,,,
2012,26-Jun,Davids,A,178,5,Dry,9:24,14:12,4:48,9:25,1,"R. Brennan, SME",13:30,1,"R. Brennan, SME",2,,,,,
2012,26-Jun,Tuttle,A,178,4,Veratrum,11:20,15:55,4:35,11:21,1,"R. Brennan, SME",15:15,1,"R. Brennan, SME",2,,,,,
2012,26-Jun,Willey,A,178,4,Willow,10:30,15:13,4:43,10:31,1,"R. Brennan, SME",14:40,1,"R. Brennan, SME",2,,,,,
2012,27-Jun,Beaver,B,179,5,Veratrum,10:54,15:40,4:46,10:55,1,"R. Brennan, A. Ochs",15:00,1,"R. Brennan, A. Ochs",2,,,,,
2012,27-Jun,Gothic,B,179,5,Willow,10:09,14:55,4:46,10:10,1,"R. Brennan, A. Ochs",14:15,1,"R. Brennan, A. Ochs",2,,,,,
2012,27-Jun,Seans,B,179,5,Dry,9:05,14:04,4:59,9:15,1,"R. Brennan, A. Ochs",13:22,1,"R. Brennan, A. Ochs",2,,,,,
2012,29-Jun,Mexican Cut,Weather station,181,2,Weather Station,9:55,15:05,5:10,10:05,1,"R. Brennan, A. Slominski",14:27,1,"R. Brennan, A. Slominski",2,,,,,
2012,2-Jul,Copper,D,184,5,Willow,11:20,15:20,4:00,11:22,1,"R. Brennan, A. Ochs",14:40,1,"R. Brennan, A. Ochs",2,,,,,
2012,2-Jul,Hill,D,184,5,Dry,9:40,15:45,6:05,9:42,1,"R. Brennan, A. Ochs",13:26,1,"R. Brennan, A. Ochs",2,,,,,
2012,2-Jul,Little,D,184,5,Veratrum,10:31,15:35,5:04,10:32,1,"R. Brennan, A. Ochs",14:06,1,"R. Brennan, A. Ochs",2,,,,,
2012,3-Jul,Kettle Ponds,Weather station,185,5,Weather Station,11:40,17:00,5:20,11:41,1,"R. Brennan, A. Ochs",13:30,1,"R. Brennan, A. Ochs",2,,,,,
2012,3-Jul,Lower Loop,Control,185,,Control,10:40,14:58,4:18,10:45,1,"SET, A. Slominski",14:09,1,"SET, A. Slominski",2,,,,,
2012,3-Jul,Snodgrass,Weather station,185,4,Weather Station,9:57,15:45,5:48,9:58,1,"R. Brennan, A. Ochs",15:05,1,"R. Brennan, A. Ochs",2,,,,,
2012,9-Jul,Davids,A,191,6,Dry,11:08,16:05,4:57,11:09,1,"R. Brennan, A. Ochs",15:20,1,"R. Brennan, A. Ochs",2,,,,,
2012,9-Jul,Tuttle,A,191,5,Veratrum,9:09,14:05,4:56,9:10,1,"R. Brennan, A. Ochs",13:15,1,"R. Brennan, A. Ochs",2,,,,,
2012,9-Jul,Willey,A,191,5,Willow,9:59,15:00,5:01,10:00,1,"R. Brennan, A. Ochs",14:15,1,"R. Brennan, A. Ochs",2,,,,,
2012,10-Jul,Beaver,B,192,6,Veratrum,9:04,14:20,5:16,9:05,1,"R. Brennan, A. Ochs",13:30,1,"R. Brennan, A. Ochs",2,,,,,
2012,10-Jul,Gothic,B,192,6,Willow,9:52,15:10,5:18,9:53,1,"R. Brennan, A. Ochs",14:30,1,"R. Brennan, A. Ochs",2,,,,,
2012,10-Jul,Seans,B,192,6,Dry,10:50,16:10,5:20,10:51,1,"R. Brennan, A. Ochs",15:25,1,"R. Brennan, A. Ochs",2,,,,,
2012,10-Jul,Slate,Control,192,,Control,11:08,15:30,4:22,11:13,1,"SET, SME",14:46,1,"SET, SME",2,,,,,
2012,11-Jul,Mexican Cut,Weather station,193,3,Weather Station,10:10,15:05,4:55,10:12,1,"R. Brennan, A. Ochs",14:08,1,"R. Brennan, A. Ochs",2,,,,,
2012,12-Jul,Almont,Weather station,194,7,Weather Station,9:00,15:05,6:05,9:02,1,R. Brennan,14:00,1,R. Brennan,2,,,,,
2012,17-Jul,Washington Gulch 2,Control,199,,Control,10:15,14:38,4:23,10:16,1,"SET, A. Slominski",13:44,1,"SET, A. Slominski",2,,,,,
2012,18-Jul,Copper,D,200,6,Willow,9:35,13:45,4:10,9:35,1,"R. Brennan, A. Ochs",13:03,1,"R. Brennan, A. Ochs",2,,,,,
2012,18-Jul,Hill,D,200,6,Dry,11:05,15:20,4:15,11:10,1,"R. Brennan, A. Ochs",14:40,1,"R. Brennan, A. Ochs",2,,,,,
2012,18-Jul,Little,D,200,6,Veratrum,10:20,14:30,4:10,10:21,1,"R. Brennan, A. Ochs",13:50,1,"R. Brennan, A. Ochs",2,,,,,
2012,19-Jul,Kettle Ponds,Weather station,201,6,Weather Station,8:40,14:10,5:30,8:45,1,R. Brennan,13:30,1,"R. Brennan, SME",2,,,,,
2012,19-Jul,Snodgrass,Weather station,201,5,Weather Station,11:05,15:40,4:35,11:06,1,"R. Brennan, SME",NA,0,NA,1,,,,,
2012,24-Jul,Davids,A,206,7,Dry,8:55,13:55,5:00,8:55,1,"R. Brennan, A. Slominski",13:15,1,"R. Brennan, A. Slominski",2,,,,,
2012,24-Jul,Rosey Point,Control,206,,Control,9:54,14:33,4:39,9:56,1,"SET, SME",13:57,1,"SET, SME",2,,,,,
2012,24-Jul,Tuttle,A,206,6,Veratrum,10:55,15:45,4:50,10:55,1,"R. Brennan, A. Slominski",15:05,1,"R. Brennan, A. Slominski",2,,,,,
2012,24-Jul,Willey,A,206,6,Willow,10:05,14:55,4:50,10:05,1,"R. Brennan, A. Slominski",14:15,1,"R. Brennan, A. Slominski",2,,,,,
2012,25-Jul,Almont,Weather station,207,,Weather Station,8:55,15:15,6:20,8:55,1,"R. Brennan, P. Caradonna",14:30,1,"R. Brennan, P. Caradonna",2,,,,,
2012,26-Jul,Beaver,B,208,7,Veratrum,9:05,14:05,5:00,9:05,1,"R. Brennan, SET",13:25,1,"R. Brennan, SET",2,,,,,
2012,26-Jul,Gothic,B,208,7,Willow,9:50,14:50,5:00,9:52,1,"R. Brennan, SET",14:10,1,"R. Brennan, SET",2,,,,,
2012,26-Jul,Seans,B,208,7,Dry,10:45,15:40,4:55,10:46,1,"R. Brennan, SET",15:05,1,"R. Brennan, SET",2,,,,,
2012,27-Jul,Mexican Cut,Weather station,209,,Weather Station,10:27,15:37,5:10,10:29,1,"R. Brennan, SME",15:00,1,"R. Brennan, SME",2,,,,,
2012,31-Jul,Copper,D,213,7,Willow,11:05,15:25,4:20,11:05,1,"R. Brennan, A. Ochs",14:45,1,"R. Brennan, A. Ochs",2,,,,,
2012,31-Jul,Hill,D,213,7,Dry,9:05,13:55,4:50,9:10,1,"R. Brennan, A. Ochs",13:15,1,"R. Brennan, A. Ochs",2,,,,,
2012,31-Jul,Little,D,213,7,Veratrum,10:00,14:42,4:42,10:02,1,"R. Brennan, A. Ochs",14:00,1,"R. Brennan, A. Ochs",2,,,,,
2012,1-Aug,Kettle Ponds,Weather station,214,,Weather Station,11:00,16:50,5:50,11:02,1,"R. Brennan, SME",16:13,1,"R. Brennan, SME",2,,,,,
2012,1-Aug,Snodgrass,Weather station,214,,Weather Station,9:10,15:04,5:54,9:15,1,"R. Brennan, SME",14:20,1,"R. Brennan, SME",2,,,,,
2012,6-Aug,Avery 3,Control,219,,Control,9:40,15:50,6:10,9:42,1,"A. Slominski, SME, A. Ochs",NA,0,NA,1,,,,,
2012,6-Aug,Avery Parking Lot,Control,219,,Control,9:10,14:55,5:45,10:40,1,"A. Slominski, SME, A. Ochs",14:25,1,"A. Slominski, SME, A. Ochs",2,,,,,
2012,6-Aug,Marmot Meadow,Control,219,,Control,9:25,15:30,6:05,10:12,1,"A. Slominski, SME, A. Ochs",15:05,1,"A. Slominski, SME, A. Ochs",2,,,,,
2012,7-Aug,Copper Creek 2,Control,220,,Control,10:28,15:07,4:39,10:31,1,"SME, A. Ochs",14:25,1,"SME, A. Ochs",2,,,,,
2012,7-Aug,Copper Ipo,Control,220,,Control,9:24,14:13,4:49,9:29,1,"SME, A. Ochs",13:35,1,"SME, A. Ochs",2,,,,,
2012,8-Aug,Davids,A,221,8,Dry,11:00,16:00,5:00,11:00,1,"R. Brennan, A. Ochs",15:20,1,"R. Brennan, A. Ochs",2,,,,,
2012,8-Aug,Tuttle,A,221,7,Veratrum,9:00,14:15,5:15,9:00,1,"R. Brennan, A. Ochs",13:35,1,"R. Brennan, A. Ochs",2,,,,,
2012,8-Aug,Willey,A,221,7,Willow,9:45,15:00,5:15,9:45,1,"R. Brennan, A. Ochs",14:20,1,"R. Brennan, A. Ochs",2,,,,,
2012,9-Aug,Beaver,B,222,8,Veratrum,10:48,15:45,4:57,10:50,1,"R. Brennan, A. Ochs",15:10,1,"R. Brennan, A. Ochs",2,,,,,
2012,9-Aug,Gothic,B,222,8,Willow,10:00,15:05,5:05,10:00,1,"R. Brennan, A. Ochs",14:25,1,"R. Brennan, A. Ochs",2,,,,,
2012,9-Aug,Seans,B,222,8,Dry,9:08,14:10,5:02,9:09,1,"R. Brennan, A. Ochs",13:30,1,"R. Brennan, A. Ochs",2,,,,,
2012,10-Aug,Mexican Cut,Weather station,223,,Weather Station,10:05,14:50,4:45,10:06,1,"R. Brennan, SME",14:10,1,"R. Brennan, SME",2,,,,,
2012,14-Aug,Copper,D,227,8,Willow,11:10,15:40,4:30,11:11,1,"R. Brennan, SME",15:03,1,"R. Brennan, SME",2,,,,,
2012,14-Aug,Hill,D,227,8,Dry,9:30,14:20,4:50,9:31,1,"R. Brennan, SME",13:40,1,"R. Brennan, SME",2,,,,,
2012,14-Aug,Little,D,227,8,Veratrum,10:20,15:00,4:40,10:21,1,"R. Brennan, SME",14:25,1,"R. Brennan, SME",2,,,,,
2012,17-Aug,Kettle Ponds,Weather station,230,,Weather Station,12:50,16:45,3:55,13:00,1,"R. Brennan, SME",16:10,0.5,R. Brennan,1.5,,,,,
2012,17-Aug,Snodgrass,Weather station,230,,Weather Station,10:25,15:15,4:50,10:30,1,"R. Brennan, SME",14:40,0.5,R. Brennan,1.5,,,,,
2012,20-Aug,Davids,A,233,9,Dry,9:15,13:40,4:25,9:25,1,"R. Brennan, R. Irwin",NA,0,NA,1,,,,,
2012,20-Aug,Tuttle,A,233,8,Veratrum,11:05,14:20,3:15,11:10,1,"R. Brennan, R. Irwin",NA,0,NA,1,,,,,
2012,20-Aug,Willey,A,233,8,Willow,10:40,14:00,3:20,10:45,1,R. Irwin,NA,0,NA,1,,,,,
2012,21-Aug,Mexican Cut,Weather station,234,,Weather Station,10:00,15:30,5:30,10:05,1,R. Brennan,14:15,1,R. Brennan,2,,,,,
2012,23-Aug,Almont,Weather station,236,,Weather Station,10:30,16:15,5:45,10:35,1,R. Brennan,15:10,1,R. Brennan,2,,,,,
2012,27-Aug,Beaver,B,240,,Veratrum,9:35,14:25,4:50,9:35,1,"R. Brennan, DC",13:45,1,"R. Brennan, DC",2,,,,,
2012,27-Aug,Gothic,B,240,,Willow,10:25,15:20,4:55,10:25,1,"R. Brennan, DC",14:40,1,"R. Brennan, DC",2,,,,,
2012,27-Aug,Seans,B,240,,Dry,11:20,16:30,5:10,11:20,1,"R. Brennan, DC",15:45,1,"R. Brennan, DC",2,,,,,
2013,5-May,Almont,Weather station,125,1,Weather Station,9:55,14:30,4:35,9:55,0.5,Z. Gezon,13:50,0.5,Z. Gezon,1,,,,,
2013,18-May,Almont,Weather station,138,2,Weather Station,10:27,14:48,4:21,10:27,1,Z. Gezon,13:11,1,Z. Gezon,2,,,,,
2013,4-Jun,Davids,A,155,1,Dry,10:25,16:35,6:10,10:26,1,"Z. Gezon, J. Andicoechea, N. Hass",15:52,1,"Z. Gezon, J. Andicoechea",2,,,,,
2013,4-Jun,Tuttle,A,155,1,Veratrum,8:25,14:44,6:19,8:26,1,"Z. Gezon, J. Andicoechea, N. Hass",14:00,1,"Z. Gezon, J. Andicoechea",2,,,,,
2013,4-Jun,Willey,A,155,1,Willow,9:18,15:37,6:19,9:18,1,"Z. Gezon, J. Andicoechea, N. Hass",14:48,1,"Z. Gezon, J. Andicoechea",2,,,,,
2013,5-Jun,Almont,Weather station,156,3,Weather Station,11:07,15:50,4:43,11:08,1,"Z. Gezon, J. Andicoechea",15:00,1,"Z. Gezon, J. Andicoechea",2,,,,,
2013,10-Jun,Kettle Ponds,Weather station,161,1,Weather Station,8:52,15:30,6:38,8:55,1,"J. Andicoechea, A. Ochs",14:53,1,"J. Andicoechea, A. Ochs",2,,,,,
2013,11-Jun,Snodgrass,Weather station,162,1,Weather Station,10:30,14:55,4:25,10:55,1,"J. Andicoechea, A. Ochs",13:30,1,"J. Andicoechea, A. Ochs",2,,,,,
2013,12-Jun,Copper,D,163,1,Willow,9:50,16:26,6:36,10:05,1,"J. Andicoechea, A. Ochs",15:36,1,"J. Andicoechea, A. Ochs",2,,,,,
2013,12-Jun,Hill,D,163,1,Dry,8:47,15:46,6:59,9:14,1,"J. Andicoechea, A. Ochs",15:14,1,"R. Shearer, J. Andicoechea, A. Ochs",2,,,,,
2013,12-Jun,Little,D,163,1,Veratrum,10:40,16:51,6:11,10:49,1,"J. Andicoechea, A. Ochs",16:35,1,"J. Andicoechea, A. Ochs",2,,,,,
2013,13-Jun,Beaver,B,164,1,Veratrum,8:36,14:25,5:49,8:56,1,"A. Ochs, J. Andicoechea, R. Shearer",13:58,1,"A. Ochs, J. Andicoechea, R. Shearer",2,,,,,
2013,13-Jun,Gothic,B,164,1,Willow,9:28,15:01,5:33,9:53,1,"A. Ochs, J. Andicoechea, R. Shearer",14:34,1,"A. Ochs, J. Andicoechea, R. Shearer",2,,,,,
2013,13-Jun,Seans,B,164,1,Dry,10:31,16:00,5:29,11:03,1,"A. Ochs, J. Andicoechea, R. Shearer",15:35,1,"A. Ochs, J. Andicoechea, R. Shearer",2,,,,,
2013,17-Jun,Davids,A,168,2,Dry,9:57,15:05,5:08,9:57,1,"J. Andicoechea, A. Ochs",14:30,1,"J. Andicoechea, A. Ochs",2,,,,,
2013,17-Jun,Tuttle,A,168,2,Veratrum,8:20,13:53,5:33,8:27,1,"J. Andicoechea, A. Ochs",13:22,1,"J. Andicoechea, A. Ochs",2,,,,,
2013,17-Jun,Willey,A,168,2,Willow,8:59,14:05,5:06,9:07,1,"J. Andicoechea, A. Ochs",12:48,1,"J. Andicoechea, A. Ochs",2,,,,,
2013,18-Jun,Almont,Weather station,169,4,Weather Station,9:19,15:35,6:16,9:30,1,"J. Andicoechea, A. Ochs",14:30,1,A. Ochs,2,,,,,
2013,21-Jun,Mexican Cut,Weather station,172,1,Weather Station,9:50,16:12,6:22,9:53,1,"R. Shearer, J. Andicoechea, Z. Gezon, M. Combs",15:02,1,J. Andicoechea,2,,,,,
2013,24-Jun,Kettle Ponds,Weather station,175,2,Weather Station,9:00,15:28,6:28,9:10,1,"A. Ochs, R. Shearer",14:20,1,"A. Ochs, R. Shearer",2,,,,,
2013,24-Jun,Snodgrass,Weather station,175,2,Weather Station,9:06,15:37,6:31,9:25,1,J. Andicoechea,14:49,1,J. Andicoechea,2,,,,,
2013,25-Jun,Beaver,B,176,2,Veratrum,8:37,14:15,5:38,8:47,1,"A. Ochs, J. Andicoechea",13:04,1,"A. Ochs, J. Andicoechea",2,,,,,
2013,25-Jun,Gothic,B,176,2,Willow,9:34,14:08,4:34,9:41,1,"A. Ochs, J. Andicoechea",13:45,1,"A. Ochs, J. Andicoechea",2,,,,,
2013,25-Jun,Seans,B,176,2,Dry,10:39,15:49,5:10,10:48,1,"A. Ochs, J. Andicoechea",14:45,1,"A. Ochs, J. Andicoechea",2,,,,,
2013,27-Jun,Copper,D,178,2,Willow,9:15,15:30,6:15,9:25,1,A. Ochs,14:50,1,"J. Andicoechea, A. Ochs",2,,,,,
2013,27-Jun,Hill,D,178,2,Dry,8:40,15:54,7:14,11:28,1,A. Ochs,12:45,1,A. Ochs,2,,,,,
2013,27-Jun,Little,D,178,2,Veratrum,9:00,15:40,6:40,10:27,1,A. Ochs,13:45,1,"J. Andicoechea, A. Ochs",2,,,,,
2013,1-Jul,Davids,A,182,3,Dry,9:51,15:55,6:04,10:00,1,"C. Phillips, A. Ochs, J. Andicoechea",14:55,1,"C. Phillips, A. Ochs, J. Andicoechea",2,,,,,
2013,1-Jul,Tuttle,A,182,3,Veratrum,8:11,14:35,6:24,8:26,1,"C. Phillips, A. Ochs, J. Andicoechea",13:35,1,"C. Phillips, A. Ochs, J. Andicoechea",2,,,,,
2013,1-Jul,Willey,A,182,3,Willow,8:54,14:45,5:51,9:13,1,"C. Phillips, A. Ochs, J. Andicoechea",12:32,1,"C. Phillips, A. Ochs, J. Andicoechea",2,,,,,
2013,2-Jul,Mexican Cut,Weather station,183,2,Weather Station,9:07,14:35,5:28,9:18,1,"C. Phillips, A. Ochs, J. Andicoechea",14:08,1,"C. Phillips, A. Ochs, J. Andicoechea",2,,,,,
2013,5-Jul,Almont,Weather station,186,5,Weather Station,9:36,15:22,5:46,9:57,1,J. Andicoechea,14:01,1,J. Andicoechea,2,,,,,
2013,15-Jul,Kettle Ponds,Weather station,196,3,Weather Station,9:32,13:45,4:13,9:48,1,J. Andicoechea,NA,0,NA,1,,,,,Afternoon netting not carried out because it was drizzling (and eventually thundersorming)
2013,16-Jul,Snodgrass,Weather station,197,3,Weather Station,9:48,12:55,3:07,10:05,1,J. Andicoechea,NA,0,NA,1,,,,,Afternoon netting not carried out because of approaching thunderstorm
2013,19-Jul,Beaver,B,200,3,Veratrum,10:30,13:28,2:58,10:55,1,"R. Irwin, J. Andicoechea",NA,0,NA,1,,,,,Afternoon netting not carried out because of approaching thunderstorm
2013,19-Jul,Gothic,B,200,3,Willow,9:52,13:09,3:17,11:40,1,"R. Irwin, J. Andicoechea",NA,0,NA,1,,,,,Afternoon netting not carried out because of approaching thunderstorm
2013,19-Jul,Seans,B,200,3,Dry,8:18,13:00,4:42,8:43,1,J. Andicoechea,12:48,0.3,R. Irwin,1.3,,,,,
2013,22-Jul,Copper,D,203,3,Willow,9:03,15:10,6:07,9:10,1,A. Ochs,13:50,1,"A. Ochs, J. Andicoechea",2,,,,,
2013,22-Jul,Hill,D,203,3,Dry,8:40,14:30,5:50,11:13,1,A. Ochs,12:45,1,"A. Ochs, J. Andicoechea",2,,,,,
2013,22-Jul,Little,D,203,3,Veratrum,8:53,14:50,5:57,10:12,1,A. Ochs,13:17,1,"A. Ochs, J. Andicoechea",2,,,,,
2013,23-Jul,Davids,A,204,4,Dry,10:35,15:58,5:23,10:44,1,"A. Ochs, J. Andicoechea",15:10,1,"A. Ochs, J. Andicoechea",2,,,,,
2013,23-Jul,Tuttle,A,204,4,Veratrum,8:19,14:12,5:53,8:20,1,A. Ochs,13:33,1,"A. Ochs, J. Andicoechea",2,,,,,
2013,23-Jul,Willey,A,204,4,Willow,9:26,14:53,5:27,9:26,1,A. Ochs,14:14,1,"A. Ochs, J. Andicoechea",2,,,,,
2013,24-Jul,Almont,Weather station,205,6,Weather Station,9:03,14:00,4:57,9:10,1,A. Ochs,NA,0,NA,1,,,,,Afternoon netting not carried out because of approaching thunderstorm
2013,26-Jul,Mexican Cut,Weather station,207,3,Weather Station,9:28,14:02,4:34,9:55,1,"J. Andicoechea, M. Combs",12:38,1,"J. Andicoechea, M. Combs",2,,,,,
2013,31-Jul,Beaver,B,212,4,Veratrum,8:20,12:58,4:38,8:35,1,A. Ochs,12:32,1,"J. Andicoechea, A. Ochs",2,,,,,
2013,31-Jul,Gothic,B,212,4,Willow,9:41,13:45,4:04,9:54,0.5,A. Ochs,13:12,1,"J. Andicoechea, A. Ochs",1.5,,,,,
2013,31-Jul,Seans,B,212,4,Dry,10:45,14:48,4:03,10:56,1,"J. Andicoechea, A. Ochs",14:05,1,"J. Andicoechea, A. Ochs",2,,,,,
2013,2-Aug,Snodgrass,Weather station,214,4,Weather Station,9:02,15:54,6:52,10:05,1,J. Andicoechea,14:36,1,J. Andicoechea,2,,,,,
2013,5-Aug,Davids,A,217,5,Dry,9:55,12:46,2:51,10:04,1,"A. Ochs, J. Andicoechea",NA,0,NA,1,,,,,Afternoon netting not carried out because of approaching thunderstorm
2013,5-Aug,Tuttle,A,217,5,Veratrum,8:18,12:35,4:17,8:28,1,"A. Ochs, J. Andicoechea",NA,0,NA,1,,,,,Afternoon netting not carried out because of approaching thunderstorm
2013,5-Aug,Willey,A,217,5,Willow,9:00,12:45,3:45,9:08,1,"A. Ochs, J. Andicoechea",NA,0,NA,1,,,,,Afternoon netting not carried out because of approaching thunderstorm
2013,6-Aug,Almont,Weather station,218,7,Weather Station,9:38,14:34,4:56,9:15,1,"A. Ochs, J. Andicoechea",14:11,0.67,"J. Andicoechea, A. Ochs",1.67,,,,,
2013,14-Aug,Copper,D,226,4,Willow,9:15,13:45,4:30,10:07,1,"G. Pardee, J. Andicoechea",NA,0,NA,1,,,,,Afternoon netting not carried out because of approaching thunderstorm
2013,14-Aug,Hill,D,226,4,Dry,9:45,13:45,4:00,11:36,1,"G. Pardee, J. Andicoechea",12:41,1,"G. Pardee, J. Andicoechea",2,,,,,"25 bowls -- missing two yellow, two white and one blue"
2013,14-Aug,Little,D,226,4,Veratrum,9:34,13:23,3:49,11:00,1,"G. Pardee, J. Andicoechea",NA,0,NA,1,,,,,Afternoon netting not carried out because of approaching thunderstorm
2013,15-Aug,Mexican Cut,Weather station,227,4,Weather Station,11:08,13:50,2:42,11:41,1,"R. Irwin, G. Pardee",13:15,1,"R. Irwin, G. Pardee",2,,,,,Intermittent rain
2013,16-Aug,Beaver,B,228,5,Veratrum,10:11,16:42,6:31,10:19,1,"G. Pardee, J. Andicoechea",16:04,0.5,J. Andicoechea,1.5,,,,,
2013,16-Aug,Gothic,B,228,5,Willow,9:29,15:52,6:23,9:39,1,"G. Pardee, J. Andicoechea",15:19,0.5,J. Andicoechea,1.5,,,,,
2013,16-Aug,Seans,B,228,5,Dry,8:39,15:01,6:22,8:45,1,"G. Pardee, J. Andicoechea",14:28,0.5,J. Andicoechea,1.5,,,,,
2013,18-Aug,Snodgrass,Weather station,230,5,Weather Station,9:57,12:48,2:51,10:15,1,J. Andicoechea,NA,0,NA,1,,,,,Afternoon netting not carried out because of approaching thunderstorm
2013,19-Aug,Almont,Weather station,231,8,Weather Station,10:45,15:30,4:45,11:30,1,R. Irwin,14:30,1,R. Irwin,2,,,,,28 bowls -- missing one yellow and one white
2013,19-Aug,Davids,A,231,6,Dry,11:30,15:05,3:35,11:45,1,"G. Pardee, J. Andicoechea",NA,0,NA,1,,,,,Afternoon netting not carried out because of approaching thunderstorm
2013,19-Aug,Tuttle,A,231,6,Veratrum,9:55,13:55,4:00,10:02,1,"G. Pardee, J. Andicoechea",13:35,1,"G. Pardee, J. Andicoechea",2,,,,,
2013,19-Aug,Willey,A,231,6,Willow,10:35,14:40,4:05,10:42,1,"G. Pardee, J. Andicoechea",14:46,0.25,"G. Pardee, J. Andicoechea",1.25,,,,,Rainstorms approaching
